{
  "$schema": "http://json-schema.org/schema#",
  "type": "object",
  "properties": {
    "affinity": {
      "type": "object",
      "description": "Node affinity for pod assignment"
    },
    "config": {
      "type": "object",
      "properties": {
        "authorizationService": {
          "type": "object",
          "properties": {
            "enabled": {
              "type": "boolean"
            },
            "url": {
              "type": "string"
            }
          }
        },
        "directoryHostname": {
          "type": "string",
          "description": "Used to retrieve information about services from the directory."
        },
        "directoryInspectionHostname": {
          "type": "string",
          "description": "Used to retrieve information about services from the directory. This field has been deprecated use directoryHostname instead."
        },
        "name": {
          "type": "string",
          "description": "Unique identifier of this outway."
        },
        "logLevel": {
          "type": "string",
          "description": "Override the default loglevel set by config.logType",
          "enum": ["debug", "warn", "info"]
        },
        "logType": {
          "type": "string",
          "description": "Affects the log output. See NewProduction and NewDevelopment at https://godoc.org/go.uber.org/zap#Logger.",
          "enum": ["live", "local"]
        },
        "managementAPI": {
          "type": "object",
          "properties": {
            "address": {
              "type": "string",
              "description": "The config address of the Management API. Normally this would be: hostname:443 where hostname is the hostname of the Management API"
            }
          }
        }
      },
      "required": [
        "directoryInspectionHostname"
      ]
    },
    "fullnameOverride": {
      "type": "string",
      "description": "Override full deployment name"
    },
    "global": {
      "type": "object",
      "properties": {
        "imageRegistry": {
          "type": "string",
          "name": "Global Docker Image registry"
        },
        "imageTag": {
          "type": "string",
          "description": "Global Docker Image tag"
        },
        "tls": {
          "type": "object",
          "properties": {
            "internal": {
              "type": "object",
              "properties": {
                "rootCertificatePEM": {
                  "type": "string",
                  "description": "Global root certificate of your internal PKI. If not set the value of tls.internal.rootCertificatePEM is used"
                }
              }
            },
            "organization": {
              "type": "object",
              "properties": {
                "rootCertificatePEM": {
                  "type": "string",
                  "description": "Global NLX root certificate. If not set the value of tls.organization.rootCertificatePEM is used"
                }
              }
            }
          }
        }
      }
    },
    "https": {
      "type": "object",
      "properties": {
        "certificatePEM": {
          "type": "string",
          "description": "TLS certificate as PEM. Required if https.enabled is true\t"
        },
        "enabled": {
          "type": "boolean",
          "description": "If true, HTTPs will be enabled"
        },
        "keyPEM": {
          "type": "string",
          "description": "Private key of https.certificatePEM as PEM. Required if https.enabled is true"
        }
      }
    },
    "image": {
      "type": "object",
      "properties": {
        "pullPolicy": {
          "type": "string",
          "description": "Image pull policy",
          "enum": ["IfNotPresent", "Never", "Always"]
        },
        "pullSecrets": {
          "type": "array",
          "description": "Secrets for the image repository"
        },
        "registry": {
          "type": "string",
          "description": "Image registry (ignored if global.imageRegistry is set)"
        },
        "repository": {
          "type": "string",
          "description": "Image repository"
        },
        "tag": {
          "type": "string",
          "description": "Image tag (ignored if global.imageTag is set). When set to null, the AppVersion from the Chart is used"
        }
      }
    },
    "nameOverride": {
      "type": "string",
      "description": "Override deployment name"
    },
    "nodeSelector": {
      "type": "object",
      "description": "Node labels for pod assignment"
    },
    "podSecurityContext": {
      "type": "object",
      "properties": {
        "fsGroup": {
          "type": "integer",
          "description": "Group ID under which the pod should be started"
        }
      }
    },
    "replicaCount": {
      "type": "integer",
      "description": "Number of management replicas"
    },
    "resources": {
      "type": "object",
      "description": "Pod resource requests & limits"
    },
    "securityContext": {
      "type": "object",
      "description": "Optional security context. The YAML block should adhere to the SecurityContext spec"
    },
    "service": {
      "type": "object",
      "properties": {
        "httpPort": {
          "type": "integer",
          "description": "Port exposed by the Outway service"
        },
        "httpsPort": {
          "type": "integer",
          "description": "Port exposed by the Outway service if https.enabled is true"
        },
        "type": {
          "type": "string",
          "description": "Service type",
          "enum": ["ClusterIP", "NodePort", "LoadBalancer"]
        }
      }
    },
    "serviceAccount": {
      "type": "object",
      "properties": {
        "annotations": {
          "type": "object",
          "description": "Annotations to add to the service account"
        },
        "create": {
          "type": "boolean",
          "description": "If true, create a new service account"
        },
        "name": {
          "type": "string",
          "description": "Service account to be used. If not set and serviceAccount.create is true, a name is generated using the fullname template"
        }
      }
    },
    "tls": {
      "type": "object",
      "properties": {
        "internal": {
          "type": "object",
          "properties": {
            "certificatePEM": {
              "type": "string",
              "description": "The certificate signed by your internal PKI"
            },
            "existingSecret": {
              "type": "string",
              "description": "The private key of tls.internal.certificatePEM"
            },
            "keyPEM": {
              "type": "string",
              "description": "Use existing secret with your NLX keypair (tls.internal.certificatePEM and tls.internal.keyPEM will be ignored and picked up from this secret)"
            },
            "rootCertificatePEM": {
              "type": "string",
              "description": "The root certificate of your internal PKI"
            }
          },
          "required": [
            "certificatePEM",
            "keyPEM"
          ]
        },
        "organization": {
          "type": "object",
          "properties": {
            "certificatePEM": {
              "type": "string",
              "description": "Your NLX certificate"
            },
            "existingSecret": {
              "type": "string",
              "description": "Use existing secret with your NLX keypair (tls.organization.certificatePEM and tls.organization.keyPEM will be ignored and picked up from the secret)"
            },
            "keyPEM": {
              "type": "string",
              "description": "The private key of tls.organization.certificatePEM"
            },
            "rootCertificatePEM": {
              "type": "string",
              "description": "The NLX root certificate"
            }
          },
          "required": [
            "certificatePEM",
            "keyPEM"
          ]
        }
      }
    },
    "tolerations": {
      "type": "array",
      "description": "Node tolerations for pod assignment"
    },
    "transactionLog": {
      "type": "object",
      "properties": {
        "connectTimeout": {
          "type": "integer",
          "description": "The connection timeout for PostgreSQL"
        },
        "database": {
          "type": "string",
          "description": "PostgreSQL database"
        },
        "enabled": {
          "type": "boolean",
          "description": "If true the Outway will write log records into the transaction log"
        },
        "existingSecret": {
          "type": "object",
          "properties": {
            "name": {
              "type": "string",
              "description": "Use an existing secret for password details (`transactionLog.username` and `transactionLog.password` will be ignored and picked up from this secret)"
            },
            "passwordKey": {
              "type": "string",
              "description": "Key for password value in aforementioned existingSecret"
            },
            "usernameKey": {
              "type": "string",
              "description": "Key for username value in aforementioned existingSecret"
            }
          }
        },
        "hostname": {
          "type": "string",
          "description": "PostgreSQL hostname"
        },
        "password": {
          "type": "string",
          "description": "Password of the PostgreSQL user for the transaction log database. Will be stored in a kubernetes secret"
        },
        "port": {
          "type": "integer",
          "description": "PostgreSQL port"
        },
        "sslMode": {
          "type": "string",
          "description": "PostgreSQL SSL mode"
        },
        "username": {
          "type": "string",
          "description": "Username of the PostgreSQL user for the transaction log database. Will be stored in a kubernetes secret"
        }
      },
      "required": [
        "port",
        "sslMode"
      ]
    }
  }
}