{
  "CN": "inway.organization-b.nlx.ocal",
  "key": {
    "algo": "rsa",
    "size": 4096
  },
  "hosts": [
    "inway.organization-b.nlx.local",
    "inway.organization-b.nlx.minikube"
  ],
  "serialnumber":"12345678901234567891",
  "names": [
    {
      "O": "Organization-B",
      "C": "NL"
    }
  ]
}
